a3_task3_erika_egg
…
ii. Make a summary table containing the total number of purple urchins observed by site and year, starting from purple_urchins you created above and using the count() function to find counts of observations by group.

count_p_urch <- purple_urchins %>%
  count(site_full, year) #using count to find observations by group
count_p_urch

## # A tibble: 61 x 3
##    site_full            year     n
##    <chr>               <dbl> <int>
##  1 Arroyo Quemado Reef  2008    67
##  2 Arroyo Quemado Reef  2009   926
##  3 Arroyo Quemado Reef  2010   921
##  4 Arroyo Quemado Reef  2011   887
##  5 Arroyo Quemado Reef  2012   764
##  6 Arroyo Quemado Reef  2013   434
##  7 Arroyo Quemado Reef  2014   410
##  8 Arroyo Quemado Reef  2015   400
##  9 Arroyo Quemado Reef  2016   342
## 10 Arroyo Quemado Reef  2017   406
## #  with 51 more rows
…
